EESchema Schematic File Version 4
EELAYER 30 0
EELAYER END
$Descr A4 11693 8268
encoding utf-8
Sheet 1 3
Title ""
Date ""
Rev ""
Comp ""
Comment1 ""
Comment2 ""
Comment3 ""
Comment4 ""
$EndDescr
$Sheet
S 5150 1300 950  1100
U 5CE54EDF
F0 "ESP32" 79
F1 "esp32.sch" 50
F2 "STEP" I L 5150 1700 50 
F3 "DIR" I L 5150 1800 50 
F4 "EN" I L 5150 1900 50 
F5 "MISO" I L 5150 2100 50 
F6 "MOSI" I L 5150 2200 50 
F7 "SCK" I L 5150 2300 50 
F8 "CS_Stepper" I L 5150 2400 50 
F9 "summer" I L 5150 2000 50 
$EndSheet
$Sheet
S 2250 1650 1150 900 
U 5CE585F8
F0 "MotorSteuerung" 79
F1 "Motor.sch" 50
F2 "summer" I R 3400 2000 50 
F3 "STEP" I R 3400 1700 50 
F4 "DIR" I R 3400 1800 50 
F5 "EN" I R 3400 1900 50 
F6 "MISO" I R 3400 2100 50 
F7 "MOSI" I R 3400 2200 50 
F8 "SCK" I R 3400 2300 50 
F9 "CS_Stepper" I R 3400 2400 50 
$EndSheet
$Comp
L Connector:Screw_Terminal_01x02 J1
U 1 1 5CF8AA37
P 1300 5050
F 0 "J1" H 1218 4725 50  0000 C CNN
F 1 "Screw_Terminal_01x02" H 1218 4816 50  0000 C CNN
F 2 "TerminalBlock:TerminalBlock_Altech_AK300-2_P5.00mm" H 1300 5050 50  0001 C CNN
F 3 "~" H 1300 5050 50  0001 C CNN
	1    1300 5050
	-1   0    0    1   
$EndComp
Wire Wire Line
	1500 4950 1800 4950
Wire Wire Line
	1800 5050 1500 5050
$Comp
L Device:CP C1
U 1 1 5CF8C440
P 4050 5050
F 0 "C1" H 4168 5096 50  0000 L CNN
F 1 "1mF" H 4168 5005 50  0000 L CNN
F 2 "Capacitor_SMD:CP_Elec_8x10" H 4088 4900 50  0001 C CNN
F 3 "~" H 4050 5050 50  0001 C CNN
	1    4050 5050
	1    0    0    -1  
$EndComp
$Comp
L Regulator_Switching:LM2596S-ADJ U1
U 1 1 5CFAB727
P 4950 5000
F 0 "U1" H 4950 5367 50  0000 C CNN
F 1 "LM2596S-ADJ" H 4950 5276 50  0000 C CNN
F 2 "Package_TO_SOT_SMD:TO-263-5_TabPin3" H 5000 4750 50  0001 L CIN
F 3 "http://www.ti.com/lit/ds/symlink/lm2596.pdf" H 4950 5000 50  0001 C CNN
	1    4950 5000
	1    0    0    -1  
$EndComp
$Comp
L pspice:INDUCTOR L1
U 1 1 5CFAC68C
P 6150 5100
F 0 "L1" H 6150 5315 50  0000 C CNN
F 1 "33uH" H 6150 5224 50  0000 C CNN
F 2 "Inductor_SMD:L_12x12mm_H8mm" H 6150 5100 50  0001 C CNN
F 3 "~" H 6150 5100 50  0001 C CNN
	1    6150 5100
	1    0    0    -1  
$EndComp
$Comp
L Device:D_Schottky D1
U 1 1 5CFAD20F
P 5700 5250
F 0 "D1" V 5654 5329 50  0000 L CNN
F 1 "D_Schottky" V 5745 5329 50  0000 L CNN
F 2 "Diode_SMD:D_SMB-SMC_Universal_Handsoldering" H 5700 5250 50  0001 C CNN
F 3 "~" H 5700 5250 50  0001 C CNN
	1    5700 5250
	0    1    1    0   
$EndComp
Wire Wire Line
	5450 5100 5700 5100
Wire Wire Line
	5700 5100 5900 5100
Connection ~ 5700 5100
Wire Wire Line
	5450 4900 5900 4900
Wire Wire Line
	6600 5100 6400 5100
Wire Wire Line
	4450 5100 4450 5450
Wire Wire Line
	4450 5450 4650 5450
Wire Wire Line
	4950 5450 4950 5300
$Comp
L power:GND #PWR0103
U 1 1 5CFAFDE0
P 4650 5550
F 0 "#PWR0103" H 4650 5300 50  0001 C CNN
F 1 "GND" H 4655 5377 50  0000 C CNN
F 2 "" H 4650 5550 50  0001 C CNN
F 3 "" H 4650 5550 50  0001 C CNN
	1    4650 5550
	1    0    0    -1  
$EndComp
Wire Wire Line
	4650 5550 4650 5450
Connection ~ 4650 5450
Wire Wire Line
	4650 5450 4950 5450
Wire Wire Line
	4450 4900 4050 4900
Wire Wire Line
	4050 4900 4050 4500
$Comp
L power:+12V #PWR0104
U 1 1 5CFB106C
P 4050 4500
F 0 "#PWR0104" H 4050 4350 50  0001 C CNN
F 1 "+12V" H 4065 4673 50  0000 C CNN
F 2 "" H 4050 4500 50  0001 C CNN
F 3 "" H 4050 4500 50  0001 C CNN
	1    4050 4500
	1    0    0    -1  
$EndComp
$Comp
L power:GND #PWR0105
U 1 1 5CFB1764
P 5700 5500
F 0 "#PWR0105" H 5700 5250 50  0001 C CNN
F 1 "GND" H 5705 5327 50  0000 C CNN
F 2 "" H 5700 5500 50  0001 C CNN
F 3 "" H 5700 5500 50  0001 C CNN
	1    5700 5500
	1    0    0    -1  
$EndComp
Wire Wire Line
	5700 5500 5700 5400
$Comp
L Device:R R1
U 1 1 5CFB2461
P 5700 4450
F 0 "R1" V 5493 4450 50  0000 C CNN
F 1 "1k" V 5584 4450 50  0000 C CNN
F 2 "Resistor_SMD:R_0805_2012Metric" V 5630 4450 50  0001 C CNN
F 3 "~" H 5700 4450 50  0001 C CNN
	1    5700 4450
	0    1    1    0   
$EndComp
$Comp
L Device:R R2
U 1 1 5CFB3772
P 6150 4450
F 0 "R2" V 5943 4450 50  0000 C CNN
F 1 "1k68" V 6034 4450 50  0000 C CNN
F 2 "Resistor_SMD:R_0805_2012Metric" V 6080 4450 50  0001 C CNN
F 3 "~" H 6150 4450 50  0001 C CNN
	1    6150 4450
	0    1    1    0   
$EndComp
$Comp
L power:GND #PWR0106
U 1 1 5CFB3B08
P 5350 4450
F 0 "#PWR0106" H 5350 4200 50  0001 C CNN
F 1 "GND" H 5355 4277 50  0000 C CNN
F 2 "" H 5350 4450 50  0001 C CNN
F 3 "" H 5350 4450 50  0001 C CNN
	1    5350 4450
	0    1    1    0   
$EndComp
Wire Wire Line
	5900 4450 5900 4900
Wire Wire Line
	5850 4450 5900 4450
Wire Wire Line
	5900 4450 6000 4450
Connection ~ 5900 4450
Wire Wire Line
	6300 4450 6600 4450
Wire Wire Line
	6600 4450 6600 5100
Text Notes 6250 4350 0    50   ~ 10
Rx =1k * (Vout/1.26 - 1) 
Wire Wire Line
	6600 5100 6850 5100
Connection ~ 6600 5100
$Comp
L Device:CP C2
U 1 1 5CFB7D23
P 6850 5250
F 0 "C2" H 6968 5296 50  0000 L CNN
F 1 "1mF" H 6968 5205 50  0000 L CNN
F 2 "Capacitor_SMD:CP_Elec_8x10" H 6888 5100 50  0001 C CNN
F 3 "~" H 6850 5250 50  0001 C CNN
	1    6850 5250
	1    0    0    -1  
$EndComp
Connection ~ 6850 5100
Wire Wire Line
	6850 5100 7300 5100
$Comp
L Device:C C3
U 1 1 5CFB8D41
P 7300 5250
F 0 "C3" H 7415 5296 50  0000 L CNN
F 1 "100nF" H 7415 5205 50  0000 L CNN
F 2 "Capacitor_SMD:C_0805_2012Metric" H 7338 5100 50  0001 C CNN
F 3 "~" H 7300 5250 50  0001 C CNN
	1    7300 5250
	1    0    0    -1  
$EndComp
Connection ~ 7300 5100
Wire Wire Line
	7300 5100 7700 5100
$Comp
L Device:C C4
U 1 1 5CFB9260
P 7700 5250
F 0 "C4" H 7815 5296 50  0000 L CNN
F 1 "10uF" H 7815 5205 50  0000 L CNN
F 2 "Capacitor_SMD:C_0805_2012Metric" H 7738 5100 50  0001 C CNN
F 3 "~" H 7700 5250 50  0001 C CNN
	1    7700 5250
	1    0    0    -1  
$EndComp
Connection ~ 7700 5100
$Comp
L power:GND #PWR0108
U 1 1 5CFB96C9
P 6850 5500
F 0 "#PWR0108" H 6850 5250 50  0001 C CNN
F 1 "GND" H 6855 5327 50  0000 C CNN
F 2 "" H 6850 5500 50  0001 C CNN
F 3 "" H 6850 5500 50  0001 C CNN
	1    6850 5500
	1    0    0    -1  
$EndComp
$Comp
L power:GND #PWR0109
U 1 1 5CFB99A6
P 7300 5500
F 0 "#PWR0109" H 7300 5250 50  0001 C CNN
F 1 "GND" H 7305 5327 50  0000 C CNN
F 2 "" H 7300 5500 50  0001 C CNN
F 3 "" H 7300 5500 50  0001 C CNN
	1    7300 5500
	1    0    0    -1  
$EndComp
$Comp
L power:GND #PWR0110
U 1 1 5CFB9ABB
P 7700 5500
F 0 "#PWR0110" H 7700 5250 50  0001 C CNN
F 1 "GND" H 7705 5327 50  0000 C CNN
F 2 "" H 7700 5500 50  0001 C CNN
F 3 "" H 7700 5500 50  0001 C CNN
	1    7700 5500
	1    0    0    -1  
$EndComp
Wire Wire Line
	7700 5500 7700 5400
Wire Wire Line
	7300 5500 7300 5400
Wire Wire Line
	6850 5500 6850 5400
Connection ~ 4050 4900
Wire Wire Line
	4050 5200 4050 5450
Wire Wire Line
	4050 5450 4450 5450
Connection ~ 4450 5450
Wire Wire Line
	1800 5050 1800 5450
Wire Wire Line
	5350 4450 5550 4450
Wire Notes Line
	3650 3900 3650 5900
Wire Notes Line
	3650 5900 8350 5900
Wire Notes Line
	8350 5900 8350 3900
Wire Notes Line
	8350 3900 3650 3900
Text Notes 3750 4000 0    50   ~ 10
Netzteil
$Comp
L Mechanical:MountingHole H?
U 1 1 5CE6B327
P 1350 6750
AR Path="/5CE585F8/5CE6B327" Ref="H?"  Part="1" 
AR Path="/5CE6B327" Ref="H1"  Part="1" 
F 0 "H1" H 1450 6796 50  0000 L CNN
F 1 "MountingHole" H 1450 6705 50  0000 L CNN
F 2 "MountingHole:MountingHole_3mm" H 1350 6750 50  0001 C CNN
F 3 "~" H 1350 6750 50  0001 C CNN
	1    1350 6750
	1    0    0    -1  
$EndComp
$Comp
L Mechanical:MountingHole H?
U 1 1 5CE6B32D
P 1350 6950
AR Path="/5CE585F8/5CE6B32D" Ref="H?"  Part="1" 
AR Path="/5CE6B32D" Ref="H2"  Part="1" 
F 0 "H2" H 1450 6996 50  0000 L CNN
F 1 "MountingHole" H 1450 6905 50  0000 L CNN
F 2 "MountingHole:MountingHole_3mm" H 1350 6950 50  0001 C CNN
F 3 "~" H 1350 6950 50  0001 C CNN
	1    1350 6950
	1    0    0    -1  
$EndComp
$Comp
L Mechanical:MountingHole H?
U 1 1 5CE6B333
P 1350 7150
AR Path="/5CE585F8/5CE6B333" Ref="H?"  Part="1" 
AR Path="/5CE6B333" Ref="H3"  Part="1" 
F 0 "H3" H 1450 7196 50  0000 L CNN
F 1 "MountingHole" H 1450 7105 50  0000 L CNN
F 2 "MountingHole:MountingHole_3mm" H 1350 7150 50  0001 C CNN
F 3 "~" H 1350 7150 50  0001 C CNN
	1    1350 7150
	1    0    0    -1  
$EndComp
$Comp
L Mechanical:MountingHole H?
U 1 1 5CE6B339
P 1350 7350
AR Path="/5CE585F8/5CE6B339" Ref="H?"  Part="1" 
AR Path="/5CE6B339" Ref="H4"  Part="1" 
F 0 "H4" H 1450 7396 50  0000 L CNN
F 1 "MountingHole" H 1450 7305 50  0000 L CNN
F 2 "MountingHole:MountingHole_3mm" H 1350 7350 50  0001 C CNN
F 3 "~" H 1350 7350 50  0001 C CNN
	1    1350 7350
	1    0    0    -1  
$EndComp
$Comp
L power:+5V #PWR01
U 1 1 5D0144EE
P 7700 4750
F 0 "#PWR01" H 7700 4600 50  0001 C CNN
F 1 "+5V" H 7715 4923 50  0000 C CNN
F 2 "" H 7700 4750 50  0001 C CNN
F 3 "" H 7700 4750 50  0001 C CNN
	1    7700 4750
	1    0    0    -1  
$EndComp
$Comp
L Regulator_Linear:LM1117-3.3 U3
U 1 1 5D015115
P 9350 5100
F 0 "U3" H 9350 5342 50  0000 C CNN
F 1 "LM1117-3.3" H 9350 5251 50  0000 C CNN
F 2 "Package_TO_SOT_SMD:SOT-223-3_TabPin2" H 9350 5100 50  0001 C CNN
F 3 "http://www.ti.com/lit/ds/symlink/lm1117.pdf" H 9350 5100 50  0001 C CNN
	1    9350 5100
	1    0    0    -1  
$EndComp
$Comp
L power:+3V3 #PWR04
U 1 1 5D01584A
P 9800 4950
F 0 "#PWR04" H 9800 4800 50  0001 C CNN
F 1 "+3V3" H 9815 5123 50  0000 C CNN
F 2 "" H 9800 4950 50  0001 C CNN
F 3 "" H 9800 4950 50  0001 C CNN
	1    9800 4950
	1    0    0    -1  
$EndComp
Wire Wire Line
	9800 4950 9800 5100
Wire Wire Line
	9800 5100 9650 5100
$Comp
L power:GND #PWR03
U 1 1 5D0166F3
P 9350 5550
F 0 "#PWR03" H 9350 5300 50  0001 C CNN
F 1 "GND" H 9355 5377 50  0000 C CNN
F 2 "" H 9350 5550 50  0001 C CNN
F 3 "" H 9350 5550 50  0001 C CNN
	1    9350 5550
	1    0    0    -1  
$EndComp
Wire Wire Line
	9350 5550 9350 5400
$Comp
L power:+5V #PWR02
U 1 1 5D01722B
P 8700 5050
F 0 "#PWR02" H 8700 4900 50  0001 C CNN
F 1 "+5V" H 8715 5223 50  0000 C CNN
F 2 "" H 8700 5050 50  0001 C CNN
F 3 "" H 8700 5050 50  0001 C CNN
	1    8700 5050
	1    0    0    -1  
$EndComp
Wire Wire Line
	8700 5050 8700 5100
Wire Wire Line
	8700 5100 9050 5100
Connection ~ 9800 5100
$Comp
L Device:C C11
U 1 1 5D0186F4
P 10150 5250
F 0 "C11" H 10265 5296 50  0000 L CNN
F 1 "100nF" H 10265 5205 50  0000 L CNN
F 2 "Capacitor_SMD:C_0805_2012Metric" H 10188 5100 50  0001 C CNN
F 3 "~" H 10150 5250 50  0001 C CNN
	1    10150 5250
	1    0    0    -1  
$EndComp
$Comp
L Device:C C12
U 1 1 5D018BF3
P 10400 5250
F 0 "C12" H 10515 5296 50  0000 L CNN
F 1 "10uF" H 10515 5205 50  0000 L CNN
F 2 "Capacitor_SMD:C_0805_2012Metric" H 10438 5100 50  0001 C CNN
F 3 "~" H 10400 5250 50  0001 C CNN
	1    10400 5250
	1    0    0    -1  
$EndComp
Wire Wire Line
	9800 5100 10150 5100
Wire Wire Line
	10150 5100 10400 5100
Connection ~ 10150 5100
Wire Wire Line
	10400 5400 10150 5400
Connection ~ 10150 5400
Connection ~ 9350 5400
Wire Wire Line
	3400 2000 5150 2000
Wire Wire Line
	3400 1900 5150 1900
Wire Wire Line
	5150 1800 3400 1800
Wire Wire Line
	3400 1700 5150 1700
$Comp
L power:+12V #PWR021
U 1 1 616FC2CE
P 1800 4400
F 0 "#PWR021" H 1800 4250 50  0001 C CNN
F 1 "+12V" H 1950 4550 50  0000 C CNN
F 2 "" H 1800 4400 50  0001 C CNN
F 3 "" H 1800 4400 50  0001 C CNN
	1    1800 4400
	1    0    0    -1  
$EndComp
$Comp
L power:GND #PWR022
U 1 1 61702AE1
P 1800 5450
F 0 "#PWR022" H 1800 5200 50  0001 C CNN
F 1 "GND" H 1805 5277 50  0000 C CNN
F 2 "" H 1800 5450 50  0001 C CNN
F 3 "" H 1800 5450 50  0001 C CNN
	1    1800 5450
	1    0    0    -1  
$EndComp
Wire Wire Line
	1800 4400 1800 4950
Wire Wire Line
	3400 2400 5150 2400
Wire Wire Line
	5150 2300 3400 2300
Wire Wire Line
	3400 2200 5150 2200
Wire Wire Line
	5150 2100 3400 2100
Wire Wire Line
	9350 5400 10150 5400
$Comp
L Device:CP C?
U 1 1 617B5E64
P 8050 5350
AR Path="/5CE54EDF/617B5E64" Ref="C?"  Part="1" 
AR Path="/617B5E64" Ref="C10"  Part="1" 
F 0 "C10" H 8168 5396 50  0000 L CNN
F 1 "100uF elko" H 8168 5305 50  0000 L CNN
F 2 "Capacitor_SMD:CP_Elec_10x12.5" H 8088 5200 50  0001 C CNN
F 3 "~" H 8050 5350 50  0001 C CNN
	1    8050 5350
	1    0    0    -1  
$EndComp
Wire Wire Line
	8050 5200 8050 5050
$Comp
L power:GND #PWR0101
U 1 1 617B691E
P 8050 5500
F 0 "#PWR0101" H 8050 5250 50  0001 C CNN
F 1 "GND" H 8055 5327 50  0000 C CNN
F 2 "" H 8050 5500 50  0001 C CNN
F 3 "" H 8050 5500 50  0001 C CNN
	1    8050 5500
	1    0    0    -1  
$EndComp
Wire Wire Line
	8050 5050 7700 5050
Wire Wire Line
	7700 4750 7700 5050
Connection ~ 7700 5050
Wire Wire Line
	7700 5050 7700 5100
$EndSCHEMATC
