EESchema Schematic File Version 4
EELAYER 30 0
EELAYER END
$Descr A4 11693 8268
encoding utf-8
Sheet 2 3
Title ""
Date ""
Rev ""
Comp ""
Comment1 ""
Comment2 ""
Comment3 ""
Comment4 ""
$EndDescr
$Comp
L RF_Module:ESP32-WROOM-32 U4
U 1 1 5CE55001
P 5750 3350
F 0 "U4" H 5750 4931 50  0000 C CNN
F 1 "ESP32-WROOM-32" H 5750 4840 50  0000 C CNN
F 2 "RF_Module:ESP32-WROOM-32" H 5750 1850 50  0001 C CNN
F 3 "https://www.espressif.com/sites/default/files/documentation/esp32-wroom-32_datasheet_en.pdf" H 5450 3400 50  0001 C CNN
	1    5750 3350
	1    0    0    -1  
$EndComp
$Comp
L Device:R R4
U 1 1 5CE861DE
P 1950 1600
F 0 "R4" H 2020 1646 50  0000 L CNN
F 1 "R" H 2020 1555 50  0000 L CNN
F 2 "Resistor_SMD:R_0805_2012Metric" V 1880 1600 50  0001 C CNN
F 3 "~" H 1950 1600 50  0001 C CNN
	1    1950 1600
	1    0    0    -1  
$EndComp
$Comp
L Device:R R5
U 1 1 5CE86DD1
P 1950 2500
F 0 "R5" H 2020 2546 50  0000 L CNN
F 1 "R" H 2020 2455 50  0000 L CNN
F 2 "Resistor_SMD:R_0805_2012Metric" V 1880 2500 50  0001 C CNN
F 3 "~" H 1950 2500 50  0001 C CNN
	1    1950 2500
	1    0    0    -1  
$EndComp
Wire Wire Line
	1950 2100 1950 2350
$Comp
L power:+3V3 #PWR0111
U 1 1 5CE88E09
P 1950 1300
F 0 "#PWR0111" H 1950 1150 50  0001 C CNN
F 1 "+3V3" H 1965 1473 50  0000 C CNN
F 2 "" H 1950 1300 50  0001 C CNN
F 3 "" H 1950 1300 50  0001 C CNN
	1    1950 1300
	1    0    0    -1  
$EndComp
Wire Wire Line
	1950 1300 1950 1450
$Comp
L power:GND #PWR0113
U 1 1 5CE89AEB
P 1950 2900
F 0 "#PWR0113" H 1950 2650 50  0001 C CNN
F 1 "GND" H 1955 2727 50  0000 C CNN
F 2 "" H 1950 2900 50  0001 C CNN
F 3 "" H 1950 2900 50  0001 C CNN
	1    1950 2900
	1    0    0    -1  
$EndComp
Wire Wire Line
	1950 2650 1950 2900
$Comp
L power:GND #PWR0116
U 1 1 5CE8EB1F
P 3700 7400
F 0 "#PWR0116" H 3700 7150 50  0001 C CNN
F 1 "GND" H 3705 7227 50  0000 C CNN
F 2 "" H 3700 7400 50  0001 C CNN
F 3 "" H 3700 7400 50  0001 C CNN
	1    3700 7400
	1    0    0    -1  
$EndComp
Wire Wire Line
	3700 7400 3700 7250
Wire Wire Line
	3700 7250 3800 7250
Wire Wire Line
	3800 7150 3450 7150
Text Label 3450 7150 0    50   ~ 0
CTS
$Comp
L Connector_Generic:Conn_01x06 J5
U 1 1 5CE8F812
P 4000 7050
F 0 "J5" H 3918 6525 50  0000 C CNN
F 1 "Conn_01x06" H 3918 6616 50  0000 C CNN
F 2 "Connector_PinSocket_2.54mm:PinSocket_1x06_P2.54mm_Vertical" H 4000 7050 50  0001 C CNN
F 3 "~" H 4000 7050 50  0001 C CNN
	1    4000 7050
	1    0    0    1   
$EndComp
Wire Wire Line
	3800 6950 3450 6950
Wire Wire Line
	3800 6850 3450 6850
Wire Wire Line
	3800 6750 3450 6750
Text Label 3450 6850 0    50   ~ 0
RXD
Text Label 3450 6950 0    50   ~ 0
TXD
NoConn ~ 3800 7050
Wire Wire Line
	6350 2250 7050 2250
Text Label 7050 2250 2    50   ~ 0
RXD
$Comp
L Device:R R6
U 1 1 5CE914F6
P 4800 1950
F 0 "R6" H 4870 1996 50  0000 L CNN
F 1 "R" H 4870 1905 50  0000 L CNN
F 2 "Resistor_SMD:R_0805_2012Metric" V 4730 1950 50  0001 C CNN
F 3 "~" H 4800 1950 50  0001 C CNN
	1    4800 1950
	1    0    0    -1  
$EndComp
$Comp
L power:+3V3 #PWR0117
U 1 1 5CE91A2B
P 4800 1650
F 0 "#PWR0117" H 4800 1500 50  0001 C CNN
F 1 "+3V3" H 4815 1823 50  0000 C CNN
F 2 "" H 4800 1650 50  0001 C CNN
F 3 "" H 4800 1650 50  0001 C CNN
	1    4800 1650
	1    0    0    -1  
$EndComp
Wire Wire Line
	4800 1650 4800 1800
Wire Wire Line
	4800 2100 4800 2150
Wire Wire Line
	4800 2150 5150 2150
NoConn ~ 5150 3350
NoConn ~ 5150 3450
NoConn ~ 5150 3550
NoConn ~ 5150 3650
NoConn ~ 5150 3750
NoConn ~ 5150 3850
Wire Wire Line
	5750 4950 5750 4750
Wire Wire Line
	1500 2000 2200 2000
Wire Wire Line
	1500 1900 1950 1900
Wire Wire Line
	1950 1900 1950 1750
Text Label 4900 2150 0    50   ~ 0
ESP_EN
Text Label 7050 2150 2    50   ~ 0
CTS
Wire Wire Line
	6350 2350 7050 2350
$Comp
L Device:R R7
U 1 1 5CEB80BA
P 7250 2000
F 0 "R7" H 7320 2046 50  0000 L CNN
F 1 "10k" H 7320 1955 50  0000 L CNN
F 2 "Resistor_SMD:R_0805_2012Metric" V 7180 2000 50  0001 C CNN
F 3 "~" H 7250 2000 50  0001 C CNN
	1    7250 2000
	1    0    0    -1  
$EndComp
$Comp
L power:+3V3 #PWR0119
U 1 1 5CEB80C4
P 7250 1700
F 0 "#PWR0119" H 7250 1550 50  0001 C CNN
F 1 "+3V3" H 7265 1873 50  0000 C CNN
F 2 "" H 7250 1700 50  0001 C CNN
F 3 "" H 7250 1700 50  0001 C CNN
	1    7250 1700
	1    0    0    -1  
$EndComp
Wire Wire Line
	7250 1700 7250 1850
Wire Wire Line
	6350 2150 7250 2150
Text Label 7150 3950 2    50   ~ 0
I2C_SCL
Text Label 7150 3850 2    50   ~ 0
I2C_SDA
$Comp
L Device:R R9
U 1 1 5CEBB686
P 7600 3800
F 0 "R9" H 7670 3846 50  0000 L CNN
F 1 "R" H 7670 3755 50  0000 L CNN
F 2 "Resistor_SMD:R_0805_2012Metric" V 7530 3800 50  0001 C CNN
F 3 "~" H 7600 3800 50  0001 C CNN
	1    7600 3800
	1    0    0    -1  
$EndComp
Wire Wire Line
	1350 4600 1750 4600
$Comp
L Device:R R3
U 1 1 5CEC14ED
P 1600 4950
F 0 "R3" H 1670 4996 50  0000 L CNN
F 1 "R" H 1670 4905 50  0000 L CNN
F 2 "Resistor_SMD:R_0805_2012Metric" V 1530 4950 50  0001 C CNN
F 3 "~" H 1600 4950 50  0001 C CNN
	1    1600 4950
	1    0    0    -1  
$EndComp
$Comp
L power:GND #PWR0120
U 1 1 5CEC1CFB
P 1600 5200
F 0 "#PWR0120" H 1600 4950 50  0001 C CNN
F 1 "GND" H 1605 5027 50  0000 C CNN
F 2 "" H 1600 5200 50  0001 C CNN
F 3 "" H 1600 5200 50  0001 C CNN
	1    1600 5200
	1    0    0    -1  
$EndComp
Wire Wire Line
	1600 5200 1600 5100
Wire Wire Line
	1600 4800 1750 4800
Wire Wire Line
	1350 4500 1600 4500
Wire Wire Line
	1600 4500 1600 4100
$Comp
L power:+3V3 #PWR0121
U 1 1 5CEC3F53
P 2550 4400
F 0 "#PWR0121" H 2550 4250 50  0001 C CNN
F 1 "+3V3" H 2565 4573 50  0000 C CNN
F 2 "" H 2550 4400 50  0001 C CNN
F 3 "" H 2550 4400 50  0001 C CNN
	1    2550 4400
	1    0    0    -1  
$EndComp
Wire Wire Line
	2350 4600 2550 4600
Wire Wire Line
	2550 4600 2550 4400
Text Label 2800 4800 2    50   ~ 0
BTN_zu
Text Label 4750 2350 0    50   ~ 0
BTN_zu
Wire Wire Line
	5150 2350 4750 2350
Wire Wire Line
	6350 3950 7600 3950
$Comp
L Device:R R8
U 1 1 5CECF4AD
P 7400 3700
F 0 "R8" H 7470 3746 50  0000 L CNN
F 1 "R" H 7470 3655 50  0000 L CNN
F 2 "Resistor_SMD:R_0805_2012Metric" V 7330 3700 50  0001 C CNN
F 3 "~" H 7400 3700 50  0001 C CNN
	1    7400 3700
	1    0    0    -1  
$EndComp
Wire Wire Line
	6350 3850 7400 3850
Wire Notes Line
	900  3650 900  5700
Wire Notes Line
	900  5700 3100 5700
Wire Notes Line
	3100 5700 3100 3650
Wire Notes Line
	900  3650 3100 3650
Text Notes 1050 3800 0    79   ~ 0
Tuer schliessen Taster
Wire Notes Line
	3250 6450 3250 7700
Wire Notes Line
	3250 7700 4600 7700
Wire Notes Line
	4600 7700 4600 6450
Wire Notes Line
	4600 6450 3250 6450
Text Notes 3300 6550 0    79   ~ 0
Programmieradapter
Wire Notes Line
	2500 3200 2500 900 
Wire Notes Line
	2500 900  900  900 
Wire Notes Line
	900  900  900  3200
Wire Notes Line
	900  3200 2500 3200
Text Notes 1000 1050 0    79   ~ 0
Riegelposition
Wire Wire Line
	1250 6900 1450 6900
Wire Wire Line
	1450 6900 1450 6700
$Comp
L power:GND #PWR0123
U 1 1 5CF42077
P 1450 7500
F 0 "#PWR0123" H 1450 7250 50  0001 C CNN
F 1 "GND" H 1455 7327 50  0000 C CNN
F 2 "" H 1450 7500 50  0001 C CNN
F 3 "" H 1450 7500 50  0001 C CNN
	1    1450 7500
	1    0    0    -1  
$EndComp
Wire Wire Line
	1250 7000 1600 7000
Text Label 3050 7150 2    50   ~ 0
RFID_RX
Text Label 7050 3350 2    50   ~ 0
RFID_RX
$Comp
L Connector_Generic:Conn_01x04 J6
U 1 1 5CF46BD0
P 5700 7000
F 0 "J6" H 5780 6992 50  0000 L CNN
F 1 "Conn_01x04" H 5780 6901 50  0000 L CNN
F 2 "Connector_PinHeader_2.54mm:PinHeader_1x04_P2.54mm_Vertical" H 5700 7000 50  0001 C CNN
F 3 "~" H 5700 7000 50  0001 C CNN
	1    5700 7000
	1    0    0    -1  
$EndComp
$Comp
L power:GND #PWR0124
U 1 1 5CF47209
P 5400 7350
F 0 "#PWR0124" H 5400 7100 50  0001 C CNN
F 1 "GND" H 5405 7177 50  0000 C CNN
F 2 "" H 5400 7350 50  0001 C CNN
F 3 "" H 5400 7350 50  0001 C CNN
	1    5400 7350
	1    0    0    -1  
$EndComp
Wire Wire Line
	5400 7350 5400 7200
Wire Wire Line
	5400 7200 5500 7200
Wire Wire Line
	5500 7000 5000 7000
Wire Wire Line
	5500 7100 5000 7100
Text Label 5000 7100 0    50   ~ 0
I2C_SDA
Text Label 5000 7000 0    50   ~ 0
I2C_SCL
$Comp
L power:+3V3 #PWR0125
U 1 1 5CF50573
P 7550 3500
F 0 "#PWR0125" H 7550 3350 50  0001 C CNN
F 1 "+3V3" H 7565 3673 50  0000 C CNN
F 2 "" H 7550 3500 50  0001 C CNN
F 3 "" H 7550 3500 50  0001 C CNN
	1    7550 3500
	1    0    0    -1  
$EndComp
Wire Wire Line
	7400 3550 7400 3500
Wire Wire Line
	7400 3500 7550 3500
Wire Wire Line
	7550 3500 7600 3500
Wire Wire Line
	7600 3500 7600 3650
Connection ~ 7550 3500
Wire Notes Line
	4750 7700 6450 7700
Wire Notes Line
	6450 7700 6450 6450
Wire Notes Line
	6450 6450 4750 6450
Wire Notes Line
	4750 6450 4750 7700
Text Notes 4850 6600 0    79   ~ 0
I2C --> RPI
Wire Notes Line
	900  6100 900  7700
Wire Notes Line
	900  7700 3100 7700
Wire Notes Line
	3100 7700 3100 6100
Wire Notes Line
	3100 6100 900  6100
Text Notes 1000 6250 0    79   ~ 0
RFID Leser
Wire Wire Line
	1450 7200 1250 7200
Text Label 3050 6950 2    50   ~ 0
RFID_TX
Wire Wire Line
	6350 4450 7050 4450
Wire Wire Line
	6350 4350 7050 4350
$Comp
L Connector_Generic:Conn_01x04 J7
U 1 1 5CF68D88
P 10400 5350
F 0 "J7" H 10480 5342 50  0000 L CNN
F 1 "Conn_01x04" H 10480 5251 50  0000 L CNN
F 2 "Connector_PinHeader_2.54mm:PinHeader_1x04_P2.54mm_Vertical" H 10400 5350 50  0001 C CNN
F 3 "~" H 10400 5350 50  0001 C CNN
	1    10400 5350
	1    0    0    -1  
$EndComp
Wire Wire Line
	10200 5450 9650 5450
Wire Wire Line
	10200 5350 9650 5350
Text Label 9650 5350 0    50   ~ 0
I2C_EXT_SDA
Text Label 9650 5450 0    50   ~ 0
I2C_EXT_SCL
Wire Wire Line
	6350 4150 7050 4150
Text Label 7050 4150 2    50   ~ 0
I2C_EXT_SDA
Text Label 7050 4250 2    50   ~ 0
I2C_EXT_SCL
Wire Wire Line
	6350 4250 7050 4250
$Comp
L power:GND #PWR0126
U 1 1 5CF739F8
P 10000 5600
F 0 "#PWR0126" H 10000 5350 50  0001 C CNN
F 1 "GND" H 10005 5427 50  0000 C CNN
F 2 "" H 10000 5600 50  0001 C CNN
F 3 "" H 10000 5600 50  0001 C CNN
	1    10000 5600
	1    0    0    -1  
$EndComp
Wire Wire Line
	10000 5600 10000 5550
Wire Wire Line
	10000 5550 10200 5550
$Comp
L power:+3V3 #PWR0127
U 1 1 5CF75FA1
P 10000 5050
F 0 "#PWR0127" H 10000 4900 50  0001 C CNN
F 1 "+3V3" H 10015 5223 50  0000 C CNN
F 2 "" H 10000 5050 50  0001 C CNN
F 3 "" H 10000 5050 50  0001 C CNN
	1    10000 5050
	1    0    0    -1  
$EndComp
Wire Wire Line
	10200 5250 10000 5250
Wire Wire Line
	10000 5250 10000 5050
Wire Notes Line
	9150 5900 11000 5900
Wire Notes Line
	11000 5900 11000 4550
Wire Notes Line
	11000 4550 9150 4550
Wire Notes Line
	9150 4550 9150 5900
Text Notes 9200 4700 0    79   ~ 0
Erweiterungsport/flipkey
$Comp
L power:+3V3 #PWR0128
U 1 1 5CF8D983
P 5750 1950
F 0 "#PWR0128" H 5750 1800 50  0001 C CNN
F 1 "+3V3" H 5765 2123 50  0000 C CNN
F 2 "" H 5750 1950 50  0001 C CNN
F 3 "" H 5750 1950 50  0001 C CNN
	1    5750 1950
	1    0    0    -1  
$EndComp
$Comp
L power:+3V3 #PWR0129
U 1 1 5CF8E902
P 3700 700
F 0 "#PWR0129" H 3700 550 50  0001 C CNN
F 1 "+3V3" H 3715 873 50  0000 C CNN
F 2 "" H 3700 700 50  0001 C CNN
F 3 "" H 3700 700 50  0001 C CNN
	1    3700 700 
	1    0    0    -1  
$EndComp
$Comp
L power:GND #PWR0130
U 1 1 5CF8F85B
P 3700 1200
F 0 "#PWR0130" H 3700 950 50  0001 C CNN
F 1 "GND" H 3705 1027 50  0000 C CNN
F 2 "" H 3700 1200 50  0001 C CNN
F 3 "" H 3700 1200 50  0001 C CNN
	1    3700 1200
	1    0    0    -1  
$EndComp
$Comp
L Device:CP C5
U 1 1 5CF901BF
P 3150 1000
F 0 "C5" H 3268 1046 50  0000 L CNN
F 1 "100uF elko" H 3268 955 50  0000 L CNN
F 2 "Capacitor_SMD:CP_Elec_10x12.5" H 3188 850 50  0001 C CNN
F 3 "~" H 3150 1000 50  0001 C CNN
	1    3150 1000
	1    0    0    -1  
$EndComp
$Comp
L Device:CP C6
U 1 1 5CF9057C
P 3400 1000
F 0 "C6" H 3518 1046 50  0000 L CNN
F 1 "47uF" H 3518 955 50  0000 L CNN
F 2 "Capacitor_SMD:CP_Elec_8x6.2" H 3438 850 50  0001 C CNN
F 3 "~" H 3400 1000 50  0001 C CNN
	1    3400 1000
	1    0    0    -1  
$EndComp
$Comp
L Device:C C7
U 1 1 5CF90BE4
P 3700 1000
F 0 "C7" H 3815 1046 50  0000 L CNN
F 1 "100nF" H 3815 955 50  0000 L CNN
F 2 "Capacitor_SMD:C_0805_2012Metric" H 3738 850 50  0001 C CNN
F 3 "~" H 3700 1000 50  0001 C CNN
	1    3700 1000
	1    0    0    -1  
$EndComp
$Comp
L Device:C C8
U 1 1 5CF90ECF
P 4000 1000
F 0 "C8" H 4115 1046 50  0000 L CNN
F 1 "10nF" H 4115 955 50  0000 L CNN
F 2 "Capacitor_SMD:C_0805_2012Metric" H 4038 850 50  0001 C CNN
F 3 "~" H 4000 1000 50  0001 C CNN
	1    4000 1000
	1    0    0    -1  
$EndComp
$Comp
L Device:C C9
U 1 1 5CF910E9
P 4300 1000
F 0 "C9" H 4415 1046 50  0000 L CNN
F 1 "100nF" H 4415 955 50  0000 L CNN
F 2 "Capacitor_SMD:C_0805_2012Metric" H 4338 850 50  0001 C CNN
F 3 "~" H 4300 1000 50  0001 C CNN
	1    4300 1000
	1    0    0    -1  
$EndComp
Wire Wire Line
	3150 850  3150 700 
Wire Wire Line
	3150 700  3400 700 
Wire Wire Line
	3400 850  3400 700 
Connection ~ 3400 700 
Wire Wire Line
	3400 700  3700 700 
Wire Wire Line
	3700 700  4000 700 
Wire Wire Line
	4300 700  4300 850 
Connection ~ 3700 700 
Wire Wire Line
	4000 850  4000 700 
Connection ~ 4000 700 
Wire Wire Line
	4000 700  4300 700 
Wire Wire Line
	3700 850  3700 700 
Wire Wire Line
	3150 1150 3400 1150
Wire Wire Line
	3400 1150 3700 1150
Connection ~ 3400 1150
Wire Wire Line
	3700 1150 4000 1150
Wire Wire Line
	4000 1150 4300 1150
Connection ~ 3700 1150
Connection ~ 4000 1150
Wire Wire Line
	3700 1150 3700 1200
Text Notes 9300 4850 0    79   ~ 16
TODO 3v3 isolieren
Text Label 2200 2000 2    50   ~ 0
POT_CW
Text Label 1500 1900 0    50   ~ 0
POT_A
Text Label 1500 2100 0    50   ~ 0
POT_B
$Comp
L power:GND #PWR0118
U 1 1 5CEF300A
P 5750 4950
F 0 "#PWR0118" H 5750 4700 50  0001 C CNN
F 1 "GND" H 5755 4777 50  0000 C CNN
F 2 "" H 5750 4950 50  0001 C CNN
F 3 "" H 5750 4950 50  0001 C CNN
	1    5750 4950
	1    0    0    -1  
$EndComp
Wire Wire Line
	5500 6900 5000 6900
$Comp
L power:+5V #PWR0122
U 1 1 5CEE5729
P 1450 6600
F 0 "#PWR0122" H 1450 6450 50  0001 C CNN
F 1 "+5V" H 1465 6773 50  0000 C CNN
F 2 "" H 1450 6600 50  0001 C CNN
F 3 "" H 1450 6600 50  0001 C CNN
	1    1450 6600
	1    0    0    -1  
$EndComp
$Comp
L Isolator:ADuM1201WS U9
U 1 1 5CEE6EB6
P 2200 7050
F 0 "U9" H 2200 7517 50  0000 C CNN
F 1 "ADuM1201WS" H 2200 7426 50  0000 C CNN
F 2 "Package_SO:SO-8_5.3x6.2mm_P1.27mm" H 2200 6650 50  0001 C CIN
F 3 "https://www.analog.com/static/imported-files/data_sheets/ADuM1200_1201.pdf" H 2200 6950 50  0001 C CNN
	1    2200 7050
	1    0    0    -1  
$EndComp
Wire Wire Line
	1600 7000 1600 6950
Wire Wire Line
	1600 6950 1700 6950
Wire Wire Line
	1600 7100 1600 7150
Wire Wire Line
	1600 7150 1700 7150
Wire Wire Line
	1250 7100 1350 7100
Wire Wire Line
	1700 6850 1500 6850
Wire Wire Line
	1500 6850 1500 6900
Wire Wire Line
	1500 6900 1450 6900
Connection ~ 1450 6900
$Comp
L power:+3V3 #PWR0161
U 1 1 5CF029BE
P 2750 6750
F 0 "#PWR0161" H 2750 6600 50  0001 C CNN
F 1 "+3V3" H 2765 6923 50  0000 C CNN
F 2 "" H 2750 6750 50  0001 C CNN
F 3 "" H 2750 6750 50  0001 C CNN
	1    2750 6750
	1    0    0    -1  
$EndComp
Wire Wire Line
	2700 6850 2750 6850
Wire Wire Line
	2750 6850 2750 6750
$Comp
L power:GND #PWR0162
U 1 1 5CF0809A
P 2800 7400
F 0 "#PWR0162" H 2800 7150 50  0001 C CNN
F 1 "GND" H 2805 7227 50  0000 C CNN
F 2 "" H 2800 7400 50  0001 C CNN
F 3 "" H 2800 7400 50  0001 C CNN
	1    2800 7400
	1    0    0    -1  
$EndComp
Wire Wire Line
	2800 7400 2800 7250
Wire Wire Line
	2800 7250 2700 7250
Wire Wire Line
	2700 7150 3050 7150
Wire Wire Line
	2700 6950 3050 6950
Text Label 4750 2450 0    50   ~ 0
POT_CW
Wire Wire Line
	4750 2450 5150 2450
Wire Wire Line
	1500 2100 1950 2100
Text Notes 2050 6500 0    50   ~ 0
check pinout + fp\n
$Comp
L Isolator:TLP291 U2
U 1 1 5CFEBB5D
P 2050 4700
F 0 "U2" H 2050 5025 50  0000 C CNN
F 1 "TLP291" H 2050 4934 50  0000 C CNN
F 2 "Package_SO:SO-4_4.4x2.3mm_P1.27mm" H 1850 4500 50  0001 L CIN
F 3 "https://toshiba.semicon-storage.com/info/docget.jsp?did=12884&prodName=TLP291" H 2050 4700 50  0001 L CNN
	1    2050 4700
	1    0    0    -1  
$EndComp
$Comp
L power:+12V #PWR05
U 1 1 5D0AAAE0
P 1600 4100
F 0 "#PWR05" H 1600 3950 50  0001 C CNN
F 1 "+12V" H 1615 4273 50  0000 C CNN
F 2 "" H 1600 4100 50  0001 C CNN
F 3 "" H 1600 4100 50  0001 C CNN
	1    1600 4100
	1    0    0    -1  
$EndComp
$Comp
L Device:R R11
U 1 1 5CFDFA37
P 2800 4950
F 0 "R11" H 2870 4996 50  0000 L CNN
F 1 "R" H 2870 4905 50  0000 L CNN
F 2 "Resistor_SMD:R_0805_2012Metric" V 2730 4950 50  0001 C CNN
F 3 "~" H 2800 4950 50  0001 C CNN
	1    2800 4950
	1    0    0    -1  
$EndComp
$Comp
L power:GND #PWR06
U 1 1 5CFE0055
P 2800 5100
F 0 "#PWR06" H 2800 4850 50  0001 C CNN
F 1 "GND" H 2805 4927 50  0000 C CNN
F 2 "" H 2800 5100 50  0001 C CNN
F 3 "" H 2800 5100 50  0001 C CNN
	1    2800 5100
	1    0    0    -1  
$EndComp
Wire Wire Line
	2350 4800 2800 4800
$Comp
L Device:R R10
U 1 1 5CFE0904
P 1350 6950
F 0 "R10" H 1420 6996 50  0000 L CNN
F 1 "R" H 1420 6905 50  0000 L CNN
F 2 "Resistor_SMD:R_0805_2012Metric" V 1280 6950 50  0001 C CNN
F 3 "~" H 1350 6950 50  0001 C CNN
	1    1350 6950
	1    0    0    -1  
$EndComp
Connection ~ 1450 7250
Wire Wire Line
	1450 7250 1450 7200
Wire Wire Line
	1450 7250 1450 7500
Connection ~ 1350 7100
Wire Wire Line
	1350 6800 1350 6700
Wire Wire Line
	1350 6700 1450 6700
Wire Wire Line
	1350 7100 1600 7100
Wire Wire Line
	1450 7250 1700 7250
Connection ~ 1450 6700
Wire Wire Line
	1450 6700 1450 6600
$Comp
L power:+5V #PWR07
U 1 1 5D01CBA6
P 5000 6900
F 0 "#PWR07" H 5000 6750 50  0001 C CNN
F 1 "+5V" H 5015 7073 50  0000 C CNN
F 2 "" H 5000 6900 50  0001 C CNN
F 3 "" H 5000 6900 50  0001 C CNN
	1    5000 6900
	1    0    0    -1  
$EndComp
$Comp
L Device:LED D2
U 1 1 61478552
P 10350 1500
F 0 "D2" H 10343 1717 50  0000 C CNN
F 1 "LED" H 10343 1626 50  0000 C CNN
F 2 "LED_THT:LED_D3.0mm" H 10350 1500 50  0001 C CNN
F 3 "~" H 10350 1500 50  0001 C CNN
	1    10350 1500
	-1   0    0    -1  
$EndComp
$Comp
L Device:R R13
U 1 1 6147934D
P 9950 1500
F 0 "R13" V 9743 1500 50  0000 C CNN
F 1 "R" V 9834 1500 50  0000 C CNN
F 2 "Resistor_SMD:R_0805_2012Metric" V 9880 1500 50  0001 C CNN
F 3 "~" H 9950 1500 50  0001 C CNN
	1    9950 1500
	0    1    1    0   
$EndComp
$Comp
L power:GND #PWR08
U 1 1 61479C28
P 10900 1650
F 0 "#PWR08" H 10900 1400 50  0001 C CNN
F 1 "GND" H 10905 1477 50  0000 C CNN
F 2 "" H 10900 1650 50  0001 C CNN
F 3 "" H 10900 1650 50  0001 C CNN
	1    10900 1650
	1    0    0    -1  
$EndComp
Wire Wire Line
	10500 1500 10900 1500
Wire Wire Line
	10100 1500 10200 1500
Wire Wire Line
	9800 1500 9350 1500
Text Label 9350 1500 0    50   ~ 0
LED1
Text Label 7050 2350 2    50   ~ 0
LED1
Text Label 7050 3250 2    50   ~ 0
RFID_TX
Wire Wire Line
	7050 3350 6350 3350
Wire Wire Line
	6350 3250 7050 3250
Text HLabel 7600 2650 2    50   Input ~ 0
STEP
Text HLabel 7600 2550 2    50   Input ~ 0
DIR
Wire Wire Line
	8800 3500 8350 3500
Wire Wire Line
	8350 3600 8800 3600
Wire Wire Line
	8800 3700 8350 3700
Text Label 8350 3400 0    50   ~ 0
MISO
Text Label 8350 3600 0    50   ~ 0
SCK
Text Label 8350 3700 0    50   ~ 0
MOSI
Text Label 8350 3500 0    50   ~ 0
CS_Stepper
Text HLabel 7600 2850 2    50   Input ~ 0
EN
Wire Wire Line
	6800 3550 6350 3550
Wire Wire Line
	6350 3650 6800 3650
Wire Wire Line
	6850 3750 6350 3750
Wire Wire Line
	6800 3450 6350 3450
Text Label 6800 3450 2    50   ~ 0
MISO
Text Label 6800 3650 2    50   ~ 0
SCK
Text Label 6800 3550 2    50   ~ 0
MOSI
Text Label 6850 3750 2    50   ~ 0
CS_Stepper
Wire Wire Line
	6350 2550 7600 2550
Wire Wire Line
	6350 2650 7600 2650
Wire Wire Line
	6350 2750 7600 2750
Wire Wire Line
	8800 1900 8800 2050
$Comp
L power:GND #PWR024
U 1 1 616BE476
P 10700 2800
F 0 "#PWR024" H 10700 2550 50  0001 C CNN
F 1 "GND" H 10705 2627 50  0000 C CNN
F 2 "" H 10700 2800 50  0001 C CNN
F 3 "" H 10700 2800 50  0001 C CNN
	1    10700 2800
	1    0    0    -1  
$EndComp
Wire Wire Line
	10700 2800 10700 2650
Wire Wire Line
	9400 2350 9650 2350
Wire Wire Line
	10250 2350 10400 2350
Text Label 7050 2450 2    50   ~ 0
TXD
Wire Wire Line
	7050 2450 6350 2450
Text Label 7600 2750 2    50   ~ 0
WS2812
Text Label 8450 2350 0    50   ~ 0
WS2812
Wire Wire Line
	8450 2350 8800 2350
$Comp
L LED:WS2812B D14
U 1 1 617162A4
P 9100 2350
F 0 "D14" H 9444 2396 50  0000 L CNN
F 1 "WS2812B" H 9444 2305 50  0000 L CNN
F 2 "LED_SMD:LED_WS2812B_PLCC4_5.0x5.0mm_P3.2mm" H 9150 2050 50  0001 L TNN
F 3 "https://cdn-shop.adafruit.com/datasheets/WS2812B.pdf" H 9200 1975 50  0001 L TNN
	1    9100 2350
	1    0    0    -1  
$EndComp
Wire Wire Line
	9100 2650 9950 2650
Wire Wire Line
	8800 2050 9100 2050
Connection ~ 9100 2050
Wire Wire Line
	9100 2050 9950 2050
$Comp
L LED:WS2812B D15
U 1 1 617177B8
P 9950 2350
F 0 "D15" H 10294 2396 50  0000 L CNN
F 1 "WS2812B" H 10294 2305 50  0000 L CNN
F 2 "LED_SMD:LED_WS2812B_PLCC4_5.0x5.0mm_P3.2mm" H 10000 2050 50  0001 L TNN
F 3 "https://cdn-shop.adafruit.com/datasheets/WS2812B.pdf" H 10050 1975 50  0001 L TNN
	1    9950 2350
	1    0    0    -1  
$EndComp
Connection ~ 9950 2050
Wire Wire Line
	9950 2050 10700 2050
Connection ~ 9950 2650
Wire Wire Line
	9950 2650 10700 2650
$Comp
L LED:WS2812B D16
U 1 1 61717FD0
P 10700 2350
F 0 "D16" H 11044 2396 50  0000 L CNN
F 1 "WS2812B" H 11044 2305 50  0000 L CNN
F 2 "LED_SMD:LED_WS2812B_PLCC4_5.0x5.0mm_P3.2mm" H 10750 2050 50  0001 L TNN
F 3 "https://cdn-shop.adafruit.com/datasheets/WS2812B.pdf" H 10800 1975 50  0001 L TNN
	1    10700 2350
	1    0    0    -1  
$EndComp
Connection ~ 10700 2650
Wire Wire Line
	10900 1500 10900 1650
$Comp
L power:+5V #PWR016
U 1 1 616DFD89
P 8800 1900
F 0 "#PWR016" H 8800 1750 50  0001 C CNN
F 1 "+5V" H 8815 2073 50  0000 C CNN
F 2 "" H 8800 1900 50  0001 C CNN
F 3 "" H 8800 1900 50  0001 C CNN
	1    8800 1900
	1    0    0    -1  
$EndComp
$Comp
L Connector_Generic:Conn_01x04 J3
U 1 1 6170BF88
P 1050 7000
F 0 "J3" H 1130 6992 50  0000 L CNN
F 1 "Conn_01x04" H 1130 6901 50  0000 L CNN
F 2 "Connector_PinHeader_2.54mm:PinHeader_1x04_P2.54mm_Vertical" H 1050 7000 50  0001 C CNN
F 3 "~" H 1050 7000 50  0001 C CNN
	1    1050 7000
	-1   0    0    -1  
$EndComp
$Comp
L Connector_Generic:Conn_01x03 J4
U 1 1 61715381
P 1300 2000
F 0 "J4" H 1218 1675 50  0000 C CNN
F 1 "Conn_01x03" H 1218 1766 50  0000 C CNN
F 2 "Connector_PinHeader_2.54mm:PinHeader_1x03_P2.54mm_Horizontal" H 1300 2000 50  0001 C CNN
F 3 "~" H 1300 2000 50  0001 C CNN
	1    1300 2000
	-1   0    0    1   
$EndComp
$Comp
L Connector_Generic:Conn_01x02 J2
U 1 1 617180F6
P 1150 4600
F 0 "J2" H 1068 4275 50  0000 C CNN
F 1 "Conn_01x02" H 1068 4366 50  0000 C CNN
F 2 "Connector_PinHeader_2.54mm:PinHeader_1x02_P2.54mm_Horizontal" H 1150 4600 50  0001 C CNN
F 3 "~" H 1150 4600 50  0001 C CNN
	1    1150 4600
	-1   0    0    1   
$EndComp
Text HLabel 6800 3450 2    50   Input ~ 0
MISO
Text HLabel 6800 3550 2    50   Input ~ 0
MOSI
Text HLabel 6800 3650 2    50   Input ~ 0
SCK
Text HLabel 6850 3750 2    50   Input ~ 0
CS_Stepper
Text HLabel 7600 2950 2    50   Input ~ 0
summer
Wire Wire Line
	7600 2950 6350 2950
Wire Wire Line
	6350 2850 7600 2850
Text Label 3450 6750 0    50   ~ 0
ESP_EN
$EndSCHEMATC
