EESchema Schematic File Version 4
EELAYER 30 0
EELAYER END
$Descr A4 11693 8268
encoding utf-8
Sheet 3 3
Title ""
Date ""
Rev ""
Comp ""
Comment1 ""
Comment2 ""
Comment3 ""
Comment4 ""
$EndDescr
$Comp
L Connector:Screw_Terminal_01x02 J11
U 1 1 5F80034A
P 6600 5000
F 0 "J11" H 6680 4992 50  0000 L CNN
F 1 "Screw_Terminal_01x02" H 6680 4901 50  0000 L CNN
F 2 "TerminalBlock:TerminalBlock_Altech_AK300-2_P5.00mm" H 6600 5000 50  0001 C CNN
F 3 "~" H 6600 5000 50  0001 C CNN
	1    6600 5000
	1    0    0    -1  
$EndComp
Text HLabel 3650 4750 0    50   Input ~ 0
summer
$Comp
L Connector:Screw_Terminal_01x02 J10
U 1 1 5F80124F
P 6600 4650
F 0 "J10" H 6680 4642 50  0000 L CNN
F 1 "Screw_Terminal_01x02" H 6680 4551 50  0000 L CNN
F 2 "TerminalBlock:TerminalBlock_Altech_AK300-2_P5.00mm" H 6600 4650 50  0001 C CNN
F 3 "~" H 6600 4650 50  0001 C CNN
	1    6600 4650
	1    0    0    -1  
$EndComp
Wire Wire Line
	6400 4750 6400 5000
Wire Wire Line
	6400 4650 5500 4650
Wire Wire Line
	5500 4650 5500 4700
Wire Wire Line
	5250 4950 5350 4950
Wire Notes Line
	3150 4350 7300 4350
Wire Notes Line
	7300 4350 7300 5350
Wire Notes Line
	7300 5350 3150 5350
Wire Notes Line
	3150 5350 3150 4350
Text Notes 6200 4450 0    50   ~ 0
12V 1A Summer
Text Notes 8900 2600 2    50   ~ 0
NEMA bipolar\n12-24V\n2.1A
$Comp
L Connector:Screw_Terminal_01x02 J8
U 1 1 61484817
P 8550 2800
F 0 "J8" H 8630 2792 50  0000 L CNN
F 1 "Screw_Terminal_01x02" H 8630 2701 50  0000 L CNN
F 2 "TerminalBlock:TerminalBlock_Altech_AK300-2_P5.00mm" H 8550 2800 50  0001 C CNN
F 3 "~" H 8550 2800 50  0001 C CNN
	1    8550 2800
	1    0    0    -1  
$EndComp
$Comp
L Connector:Screw_Terminal_01x02 J9
U 1 1 61485462
P 8550 3000
F 0 "J9" H 8630 2992 50  0000 L CNN
F 1 "Screw_Terminal_01x02" H 8630 2901 50  0000 L CNN
F 2 "TerminalBlock:TerminalBlock_Altech_AK300-2_P5.00mm" H 8550 3000 50  0001 C CNN
F 3 "~" H 8550 3000 50  0001 C CNN
	1    8550 3000
	1    0    0    -1  
$EndComp
$Comp
L Relay_SolidState:MOC3041M U6
U 1 1 614F225A
P 4550 4850
F 0 "U6" H 4550 5175 50  0000 C CNN
F 1 "MOC3041M" H 4550 5084 50  0000 C CNN
F 2 "Package_DIP:DIP-6_W7.62mm_LongPads" H 4350 4650 50  0001 L CIN
F 3 "https://www.onsemi.com/pub/Collateral/MOC3043M-D.pdf" H 4550 4850 50  0001 L CNN
	1    4550 4850
	1    0    0    -1  
$EndComp
$Comp
L Device:R R15
U 1 1 614F3A7F
P 3950 4750
F 0 "R15" V 3743 4750 50  0000 C CNN
F 1 "470" V 3834 4750 50  0000 C CNN
F 2 "Resistor_SMD:R_0805_2012Metric" V 3880 4750 50  0001 C CNN
F 3 "~" H 3950 4750 50  0001 C CNN
	1    3950 4750
	0    1    1    0   
$EndComp
$Comp
L Device:R R16
U 1 1 614F452C
P 5100 4950
F 0 "R16" V 4893 4950 50  0000 C CNN
F 1 "470" V 4984 4950 50  0000 C CNN
F 2 "Resistor_SMD:R_0805_2012Metric" V 5030 4950 50  0001 C CNN
F 3 "~" H 5100 4950 50  0001 C CNN
	1    5100 4950
	0    1    1    0   
$EndComp
Wire Wire Line
	4850 4950 4950 4950
Wire Wire Line
	5500 4650 4950 4650
Wire Wire Line
	4950 4650 4950 4750
Wire Wire Line
	4950 4750 4850 4750
Connection ~ 5500 4650
Wire Wire Line
	4100 4750 4250 4750
Wire Wire Line
	3650 4750 3800 4750
$Comp
L power:GND #PWR013
U 1 1 614F8181
P 4100 5050
F 0 "#PWR013" H 4100 4800 50  0001 C CNN
F 1 "GND" H 4105 4877 50  0000 C CNN
F 2 "" H 4100 5050 50  0001 C CNN
F 3 "" H 4100 5050 50  0001 C CNN
	1    4100 5050
	1    0    0    -1  
$EndComp
Wire Wire Line
	4100 5050 4100 4950
Wire Wire Line
	4100 4950 4250 4950
Text Label 5850 4650 0    50   ~ 0
12AC_IN
Text Label 5850 5100 0    50   ~ 0
12AC_OUT
$Comp
L Device:Q_TRIAC_GA2A1 D12
U 1 1 5F8017BC
P 5500 4850
F 0 "D12" H 5628 4896 50  0000 L CNN
F 1 "Q_TRIAC_GA2A1" H 5628 4805 50  0000 L CNN
F 2 "Package_TO_SOT_THT:TO-220-3_Vertical" V 5575 4875 50  0001 C CNN
F 3 "~" V 5500 4850 50  0001 C CNN
	1    5500 4850
	1    0    0    -1  
$EndComp
Wire Wire Line
	6400 5100 5500 5100
Wire Wire Line
	5500 5100 5500 5000
$Comp
L power:GND #PWR012
U 1 1 614FDA49
P 5550 3400
F 0 "#PWR012" H 5550 3150 50  0001 C CNN
F 1 "GND" H 5555 3227 50  0000 C CNN
F 2 "" H 5550 3400 50  0001 C CNN
F 3 "" H 5550 3400 50  0001 C CNN
	1    5550 3400
	-1   0    0    -1  
$EndComp
$Comp
L power:+12V #PWR?
U 1 1 615006DC
P 5100 3300
AR Path="/615006DC" Ref="#PWR?"  Part="1" 
AR Path="/5CE585F8/615006DC" Ref="#PWR010"  Part="1" 
F 0 "#PWR010" H 5100 3150 50  0001 C CNN
F 1 "+12V" H 5115 3473 50  0000 C CNN
F 2 "" H 5100 3300 50  0001 C CNN
F 3 "" H 5100 3300 50  0001 C CNN
	1    5100 3300
	0    1    -1   0   
$EndComp
$Comp
L power:+3V3 #PWR011
U 1 1 61501FE7
P 5400 2450
F 0 "#PWR011" H 5400 2300 50  0001 C CNN
F 1 "+3V3" H 5415 2623 50  0000 C CNN
F 2 "" H 5400 2450 50  0001 C CNN
F 3 "" H 5400 2450 50  0001 C CNN
	1    5400 2450
	-1   0    0    -1  
$EndComp
$Comp
L BIGTREETECH_TMC2130_v3.0:BTT_2130 U5
U 1 1 61602611
P 4500 2900
F 0 "U5" H 4500 3465 50  0000 C CNN
F 1 "BTT_2130" H 4500 3374 50  0000 C CNN
F 2 "BIGTREETECH_TMC2130_v3:BTT_2130_V3" H 4350 2900 50  0001 C CNN
F 3 "" H 4350 2900 50  0001 C CNN
	1    4500 2900
	-1   0    0    -1  
$EndComp
Wire Wire Line
	5100 3300 4900 3300
Wire Wire Line
	4900 2700 5400 2700
Wire Wire Line
	5400 2700 5400 2450
Wire Wire Line
	5550 3400 5550 3200
Wire Wire Line
	5550 3200 4900 3200
$Comp
L power:GND #PWR09
U 1 1 6160509E
P 5100 2600
F 0 "#PWR09" H 5100 2350 50  0001 C CNN
F 1 "GND" H 5105 2427 50  0000 C CNN
F 2 "" H 5100 2600 50  0001 C CNN
F 3 "" H 5100 2600 50  0001 C CNN
	1    5100 2600
	0    -1   1    0   
$EndComp
Wire Wire Line
	5100 2600 4900 2600
$Comp
L Device:D_Schottky D8
U 1 1 6162D9C1
P 6900 2350
F 0 "D8" V 6854 2430 50  0000 L CNN
F 1 "D_Schottky" V 6945 2430 50  0000 L CNN
F 2 "Diode_SMD:D_2010_5025Metric" H 6900 2350 50  0001 C CNN
F 3 "~" H 6900 2350 50  0001 C CNN
	1    6900 2350
	0    -1   1    0   
$EndComp
$Comp
L Device:D_Schottky D6
U 1 1 6162E346
P 6650 2350
F 0 "D6" V 6604 2430 50  0000 L CNN
F 1 "D_Schottky" V 6695 2430 50  0000 L CNN
F 2 "Diode_SMD:D_2010_5025Metric" H 6650 2350 50  0001 C CNN
F 3 "~" H 6650 2350 50  0001 C CNN
	1    6650 2350
	0    -1   1    0   
$EndComp
$Comp
L Device:D_Schottky D4
U 1 1 6162E7A3
P 6450 2350
F 0 "D4" V 6404 2430 50  0000 L CNN
F 1 "D_Schottky" V 6495 2430 50  0000 L CNN
F 2 "Diode_SMD:D_2010_5025Metric" H 6450 2350 50  0001 C CNN
F 3 "~" H 6450 2350 50  0001 C CNN
	1    6450 2350
	0    -1   1    0   
$EndComp
$Comp
L Device:D_Schottky D11
U 1 1 6162EFA2
P 7150 3500
F 0 "D11" V 7104 3580 50  0000 L CNN
F 1 "D_Schottky" V 7195 3580 50  0000 L CNN
F 2 "Diode_SMD:D_2010_5025Metric" H 7150 3500 50  0001 C CNN
F 3 "~" H 7150 3500 50  0001 C CNN
	1    7150 3500
	0    -1   1    0   
$EndComp
$Comp
L Device:D_Schottky D9
U 1 1 6162F571
P 6900 3500
F 0 "D9" V 6854 3580 50  0000 L CNN
F 1 "D_Schottky" V 6945 3580 50  0000 L CNN
F 2 "Diode_SMD:D_2010_5025Metric" H 6900 3500 50  0001 C CNN
F 3 "~" H 6900 3500 50  0001 C CNN
	1    6900 3500
	0    -1   1    0   
$EndComp
$Comp
L Device:D_Schottky D7
U 1 1 6162F988
P 6650 3500
F 0 "D7" V 6604 3580 50  0000 L CNN
F 1 "D_Schottky" V 6695 3580 50  0000 L CNN
F 2 "Diode_SMD:D_2010_5025Metric" H 6650 3500 50  0001 C CNN
F 3 "~" H 6650 3500 50  0001 C CNN
	1    6650 3500
	0    -1   1    0   
$EndComp
$Comp
L Device:D_Schottky D5
U 1 1 6162FFE3
P 6450 3500
F 0 "D5" V 6404 3580 50  0000 L CNN
F 1 "D_Schottky" V 6495 3580 50  0000 L CNN
F 2 "Diode_SMD:D_2010_5025Metric" H 6450 3500 50  0001 C CNN
F 3 "~" H 6450 3500 50  0001 C CNN
	1    6450 3500
	0    -1   1    0   
$EndComp
Wire Wire Line
	8350 2800 6450 2800
Wire Wire Line
	8350 2900 6650 2900
Wire Wire Line
	8350 3000 6900 3000
Wire Wire Line
	8350 3100 7150 3100
Wire Wire Line
	7150 3350 7150 3100
Connection ~ 7150 3100
Wire Wire Line
	7150 3100 4900 3100
Wire Wire Line
	7150 3100 7150 2500
Wire Wire Line
	6900 3350 6900 3000
Connection ~ 6900 3000
Wire Wire Line
	6900 3000 4900 3000
Wire Wire Line
	6900 3000 6900 2500
Wire Wire Line
	6650 2500 6650 2900
Connection ~ 6650 2900
Wire Wire Line
	6650 2900 4900 2900
Wire Wire Line
	6650 2900 6650 3350
Wire Wire Line
	6450 3350 6450 2800
Connection ~ 6450 2800
Wire Wire Line
	6450 2800 4900 2800
Wire Wire Line
	6450 2800 6450 2500
$Comp
L power:GND #PWR014
U 1 1 6164515F
P 6750 3950
F 0 "#PWR014" H 6750 3700 50  0001 C CNN
F 1 "GND" H 6755 3777 50  0000 C CNN
F 2 "" H 6750 3950 50  0001 C CNN
F 3 "" H 6750 3950 50  0001 C CNN
	1    6750 3950
	-1   0    0    -1  
$EndComp
Wire Wire Line
	6750 3950 6750 3750
Wire Wire Line
	6750 3750 6900 3750
Wire Wire Line
	7150 3750 7150 3650
Wire Wire Line
	6750 3750 6650 3750
Wire Wire Line
	6450 3750 6450 3650
Connection ~ 6750 3750
Wire Wire Line
	6650 3650 6650 3750
Connection ~ 6650 3750
Wire Wire Line
	6650 3750 6450 3750
Wire Wire Line
	6900 3650 6900 3750
Connection ~ 6900 3750
Wire Wire Line
	6900 3750 7150 3750
Wire Wire Line
	7150 2200 7150 2100
Wire Wire Line
	7150 2100 6900 2100
Wire Wire Line
	6450 2100 6450 2200
Wire Wire Line
	6650 2200 6650 2100
Connection ~ 6650 2100
Wire Wire Line
	6650 2100 6450 2100
Wire Wire Line
	6900 2200 6900 2100
Connection ~ 6900 2100
Wire Wire Line
	6900 2100 6800 2100
$Comp
L power:+12V #PWR?
U 1 1 6164BA95
P 6800 1900
AR Path="/6164BA95" Ref="#PWR?"  Part="1" 
AR Path="/5CE585F8/6164BA95" Ref="#PWR015"  Part="1" 
F 0 "#PWR015" H 6800 1750 50  0001 C CNN
F 1 "+12V" H 6815 2073 50  0000 C CNN
F 2 "" H 6800 1900 50  0001 C CNN
F 3 "" H 6800 1900 50  0001 C CNN
	1    6800 1900
	-1   0    0    -1  
$EndComp
Wire Wire Line
	6800 1900 6800 2100
Connection ~ 6800 2100
Wire Wire Line
	6800 2100 6650 2100
$Comp
L Device:D_Schottky D10
U 1 1 6162CA4F
P 7150 2350
F 0 "D10" V 7104 2430 50  0000 L CNN
F 1 "D_Schottky" V 7195 2430 50  0000 L CNN
F 2 "Diode_SMD:D_2010_5025Metric" H 7150 2350 50  0001 C CNN
F 3 "~" H 7150 2350 50  0001 C CNN
	1    7150 2350
	0    -1   1    0   
$EndComp
Text HLabel 3200 2700 0    50   Input ~ 0
STEP
Text HLabel 3200 2600 0    50   Input ~ 0
DIR
Wire Wire Line
	3650 3000 4000 3000
Wire Wire Line
	4100 3100 3650 3100
Wire Wire Line
	3650 3200 4100 3200
Wire Wire Line
	3650 2900 4100 2900
Text Label 3950 2900 2    50   ~ 0
MISO
Text Label 3950 3100 2    50   ~ 0
SCK
Text Label 3950 3200 2    50   ~ 0
MOSI
Text Label 3950 3000 2    50   ~ 0
CS_Stepper
Text HLabel 3200 3300 0    50   Input ~ 0
EN
Wire Wire Line
	3200 3300 4100 3300
Wire Wire Line
	4100 2700 3200 2700
Wire Wire Line
	3200 2600 4100 2600
Wire Wire Line
	4000 3000 4000 2450
Connection ~ 4000 3000
Wire Wire Line
	4000 3000 4100 3000
$Comp
L Device:R R17
U 1 1 616E5669
P 4000 2300
F 0 "R17" V 3793 2300 50  0000 C CNN
F 1 "10k" V 3884 2300 50  0000 C CNN
F 2 "Resistor_SMD:R_0805_2012Metric" V 3930 2300 50  0001 C CNN
F 3 "~" H 4000 2300 50  0001 C CNN
	1    4000 2300
	-1   0    0    1   
$EndComp
$Comp
L power:+3V3 #PWR025
U 1 1 616E64F8
P 4000 2150
F 0 "#PWR025" H 4000 2000 50  0001 C CNN
F 1 "+3V3" H 4015 2323 50  0000 C CNN
F 2 "" H 4000 2150 50  0001 C CNN
F 3 "" H 4000 2150 50  0001 C CNN
	1    4000 2150
	-1   0    0    -1  
$EndComp
Text HLabel 3650 2900 0    50   Input ~ 0
MISO
Text HLabel 3650 3200 0    50   Input ~ 0
MOSI
Text HLabel 3650 3100 0    50   Input ~ 0
SCK
Text HLabel 3650 3000 0    50   Input ~ 0
CS_Stepper
$EndSCHEMATC
